[
  {
    client: drsp,
    startDate: 5/4,
    times: [{ startDate: 5/4, startTime: 8:24, endDate: 5/4, endTime: 8:52 }, { startDate: 5/4, startTime 10:23, endDate: 5/4, endTime: 10:34 }],
    notes: These are some note son this task,
    tags: [{ tag: support, tag: remote }]
  },
  {
    client: drsp,
    StartDate: 5/5,
    times: [{ startDate: 5/4, startTime: 8:24, endDate: 5/4, endTime: 8:52 }, { startDate: 5/4, startTime 10:23, endDate: 5/4, endTime: 10:34 }],
    notes: Some different notes on this task.
    tags:[{ tag: remote, tag: maintenance }],
  },
  {
    client: shs,
    startDate: 5/6,
    times: [{ startDate: 5/4, startTime: 8:24, endDate: 5/4, endTime: 8:52 }, { startDate: 5/4, startTime 10:23, endDate: 5/4, endTime: 10:34 }],
    notes: These are some note son this task,
    tags: [{ tag: support, tag: remote }]
  }
]
